3 Explore Data Exported from FISS | Linking Fish Density to Habitat Characteristics
…
What do the small sites look like? Should we keep them?

length_cut <- 10
width_cut <- 1

sites_small <- d_sum %>%
  filter(fishing_area_length < length_cut |
           fishing_area_width < width_cut) %>% 
  mutate(wettedwidth_ave = rowMeans(select(., starts_with("wetted")), na.rm = TRUE)) %>% 
  select(fishing_area_length, fishing_area_width, wettedwidth_ave)

sites_small

## # A tibble: 5,079 x 3
##    fishing_area_length fishing_area_width wettedwidth_ave
##                  <dbl>              <dbl>           <dbl>
##  1                   8                4               NaN
##  2                   8                4               NaN
##  3                   5                2               NaN
##  4                   5                5               NaN
##  5                 100                0.8             NaN
##  6                 200                0.9             NaN
##  7                 200                0.7             NaN
##  8                 200                0.8             NaN
##  9                 200                0.7             NaN
## 10                 200                0.9             NaN
## # ... with 5,069 more rows

These are small sites that have associated wetted widths

sites_small %>% 
  filter(!is.na(wettedwidth_ave))

## # A tibble: 2,125 x 3
##    fishing_area_length fishing_area_width wettedwidth_ave
##                  <dbl>              <dbl>           <dbl>
##  1                  80                0.7           0.717
##  2                  67                0.7           0.643
##  3                 100                0.7           0.867
##  4                 100                0.8           0.843
##  5                 100                0.8           0.795
##  6                 100                0.6           0.8  
##  7                 100                0.9           0.947
##  8                 200                0.8           0.783
##  9                 100                0.6           0.617
## 10                 100                0.9           0.867
## # ... with 2,115 more rows

sites_small_len <- sites_small %>% 
  filter(fishing_area_length < length_cut)

sites_small_len

## # A tibble: 2,278 x 3
##    fishing_area_length fishing_area_width wettedwidth_ave
##                  <dbl>              <dbl>           <dbl>
##  1                   8                  4             NaN
##  2                   8                  4             NaN
##  3                   5                  2             NaN
##  4                   5                  5             NaN
##  5                   1                  1             NaN
##  6                   3                  1             NaN
##  7                   4                  7             NaN
##  8                   7                  3             NaN
##  9                   7                  3             NaN
## 10                   9                  8             NaN
## # ... with 2,268 more rows
…
Sites with small widths

sites_small_wid <- sites_small %>% 
  filter(fishing_area_width < width_cut)

sites_small_wid

## # A tibble: 2,815 x 3
##    fishing_area_length fishing_area_width wettedwidth_ave
##                  <dbl>              <dbl>           <dbl>
##  1                 100                0.8         NaN    
##  2                 200                0.9         NaN    
##  3                 200                0.7         NaN    
##  4                 200                0.8         NaN    
##  5                 200                0.7         NaN    
##  6                 200                0.9         NaN    
##  7                 200                0.8         NaN    
##  8                 250                0.6         NaN    
##  9                  80                0.7           0.717
## 10                  67                0.7           0.643
## # ... with 2,805 more rows
…
